…
#####Make a new data set whith a new variable that sum all steps, for each day


```r
library(dplyr)
  st <- activity %>%
    filter(!is.na(steps)) %>%
    group_by(date) %>%
    summarize(st_soma = sum(steps)) %>%
    print
```

```
## # A tibble: 53 x 2
##    date       st_soma
##    <date>       <int>
##  1 2012-10-02     126
##  2 2012-10-03   11352
##  3 2012-10-04   12116
##  4 2012-10-05   13294
##  5 2012-10-06   15420
##  6 2012-10-07   11015
##  7 2012-10-09   12811
##  8 2012-10-10    9900
##  9 2012-10-11   10304
## 10 2012-10-12   17382
## # ... with 43 more rows
```
…
#####4)Time series plot of the average number of steps taken

*  Calculation of the mean, for each day

```r
st2 <- activity %>%
    filter(!is.na(steps)) %>%
    group_by(date) %>%
    summarize(st_media = mean(steps)) %>%
    print
```

```
## # A tibble: 53 x 2
##    date       st_media
##    <date>        <dbl>
##  1 2012-10-02    0.438
##  2 2012-10-03   39.4  
##  3 2012-10-04   42.1  
##  4 2012-10-05   46.2  
##  5 2012-10-06   53.5  
##  6 2012-10-07   38.2  
##  7 2012-10-09   44.5  
##  8 2012-10-10   34.4  
##  9 2012-10-11   35.8  
## 10 2012-10-12   60.4  
## # ... with 43 more rows
```
…
#####5)The 5-minute interval that, on average, contains the maximum number of steps


*  Calculation of the mean, for each interval

```r
interval = activity %>%
    filter(!is.na(steps)) %>%
    group_by(date) %>%
    summarize(st_media = mean(steps)) %>%
    print
```

```
## # A tibble: 53 x 2
##    date       st_media
##    <date>        <dbl>
##  1 2012-10-02    0.438
##  2 2012-10-03   39.4  
##  3 2012-10-04   42.1  
##  4 2012-10-05   46.2  
##  5 2012-10-06   53.5  
##  6 2012-10-07   38.2  
##  7 2012-10-09   44.5  
##  8 2012-10-10   34.4  
##  9 2012-10-11   35.8  
## 10 2012-10-12   60.4  
## # ... with 43 more rows
```
…
*  Calculating the steps


```r
steps_subs <- data_subs %>%
  filter(!is.na(steps)) %>%
  group_by(date) %>%
  summarize(steps = sum(steps)) %>%
  print
```

```
## # A tibble: 61 x 2
##    date        steps
##    <date>      <dbl>
##  1 2012-10-01 10766.
##  2 2012-10-02   126 
##  3 2012-10-03 11352 
##  4 2012-10-04 12116 
##  5 2012-10-05 13294 
##  6 2012-10-06 15420 
##  7 2012-10-07 11015 
##  8 2012-10-08 10766.
##  9 2012-10-09 12811 
## 10 2012-10-10  9900 
## # ... with 51 more rows
```
…
